{
  "forge_marker": 1,
  "defaults": {
    "textures": {
      "all": "upower:blocks/powerbank_basic0"
    },
    "model": "cube_all",
    "uvlock": true
  },
  "variants": {
    "charge_percent": {
      "0": {},
      "1": {
        "textures": {
          "all": "upower:blocks/powerbank_basic10"
        }
      },
      "2": {
        "textures": {
          "all": "upower:blocks/powerbank_basic20"
        }
      },
      "3": {
        "textures": {
          "all": "upower:blocks/powerbank_basic30"
        }
      },
      "4": {
        "textures": {
          "all": "upower:blocks/powerbank_basic40"
        }
      },
      "5": {
        "textures": {
          "all": "upower:blocks/powerbank_basic50"
        }
      },
      "6": {
        "textures": {
          "all": "upower:blocks/powerbank_basic60"
        }
      },
      "7": {
        "textures": {
          "all": "upower:blocks/powerbank_basic70"
        }
      },
      "8": {
        "textures": {
          "all": "upower:blocks/powerbank_basic80"
        }
      },
      "9": {
        "textures": {
          "all": "upower:blocks/powerbank_basic90"
        }
      },
      "10": {
        "textures": {
          "all": "upower:blocks/powerbank_basic100"
        }
      }
    }
  }
}